<svg width="40" height="37" viewBox="0 0 40 37" fill="none" xmlns="http://www.w3.org/2000/svg">
<g clip-path="url(#clip0)">
<path d="M13.6383 4.59446C14.0239 3.58241 14.554 2.65068 15.3412 1.89566C18.4897 -1.17261 23.6946 -0.401525 25.8311 3.4539C27.4375 6.37759 29.1403 9.23703 30.795 12.1286C33.558 16.9318 36.3532 21.735 39.0841 26.5543C41.3813 30.5864 38.8914 35.6788 34.3291 36.3696C31.5339 36.7872 28.9154 35.5021 27.4697 32.9961C25.044 28.7712 22.6022 24.5463 20.1765 20.3374C20.1283 20.241 20.064 20.1607 19.9998 20.0804C19.7428 19.8716 19.6303 19.5663 19.4697 19.2933C18.3934 17.3977 17.2849 15.5182 16.2086 13.6386C15.5179 12.4178 14.795 11.2129 14.1042 9.99205C13.4777 8.89968 13.1885 7.71092 13.2207 6.45791C13.2689 5.81534 13.3492 5.17277 13.6383 4.59446Z" fill="#3C8BD9"/>
<path d="M13.6388 4.59448C13.4942 5.1728 13.3657 5.75111 13.3335 6.36155C13.2854 7.71095 13.6227 8.96396 14.2974 10.1367C16.0645 13.1728 17.8315 16.225 19.5825 19.2772C19.7432 19.5503 19.8717 19.8234 20.0323 20.0804C19.0685 21.7511 18.1046 23.4057 17.1247 25.0764C15.7753 27.4057 14.4259 29.7511 13.0605 32.0804C12.9962 32.0804 12.9801 32.0483 12.9641 32.0001C12.948 31.8716 12.9962 31.7591 13.0283 31.6306C13.687 29.221 13.1408 27.0844 11.4862 25.2531C10.4741 24.1447 9.18897 23.5182 7.71106 23.3093C5.78335 23.0362 4.08054 23.5342 2.55443 24.7391C2.28134 24.9479 2.10463 25.2531 1.78335 25.4138C1.71909 25.4138 1.68696 25.3816 1.6709 25.3334C2.44198 24.0001 3.197 22.6668 3.96809 21.3334C7.14881 15.8073 10.3295 10.2812 13.5263 4.77119C13.5584 4.70693 13.6066 4.65874 13.6388 4.59448Z" fill="#FABC04"/>
<path d="M1.73478 25.3815C2.04 25.1084 2.32916 24.8192 2.65044 24.5622C6.55406 21.4779 12.4175 23.7108 13.2689 28.5943C13.4778 29.767 13.3653 30.8915 13.0119 32.016C12.9958 32.1124 12.9798 32.1927 12.9476 32.2891C12.8031 32.5461 12.6745 32.8192 12.5139 33.0763C11.0842 35.4377 8.97976 36.6104 6.21671 36.4337C3.05205 36.2088 0.562089 33.8313 0.128354 30.6827C-0.0804808 29.1566 0.22474 27.7269 1.01189 26.4096C1.17253 26.1204 1.3653 25.8634 1.54201 25.5743C1.62233 25.51 1.5902 25.3815 1.73478 25.3815Z" fill="#34A852"/>
<path d="M1.73487 25.3816C1.67061 25.4459 1.67061 25.5583 1.55816 25.5744C1.5421 25.462 1.60635 25.3977 1.67061 25.3174L1.73487 25.3816Z" fill="#FABC04"/>
<path d="M12.9475 32.2892C12.8833 32.1768 12.9475 32.0964 13.0118 32.0161C13.0278 32.0322 13.06 32.0643 13.076 32.0804L12.9475 32.2892Z" fill="#E1C025"/>
</g>
<defs>
<clipPath id="clip0">
<rect width="40" height="36.4659" fill="white"/>
</clipPath>
</defs>
</svg>
