<?xml version="1.0" encoding="UTF-8"?>
<svg xmlns="http://www.w3.org/2000/svg" viewBox="0 0 294.3 294.3">
  <defs>
    <style>
      .cls-1 {
        fill: none;
      }

      .cls-1, .cls-2, .cls-3, .cls-4, .cls-5, .cls-6 {
        stroke-width: 0px;
      }

      .cls-7 {
        fill: #e3e1e5;
      }

      .cls-8, .cls-6 {
        fill: #fff;
      }

      .cls-9, .cls-3 {
        fill: #1d1d1b;
      }

      .cls-10 {
        mix-blend-mode: multiply;
      }

      .cls-11 {
        isolation: isolate;
      }

      .cls-4 {
        fill: #de282d;
      }

      .cls-5 {
        fill: #bde9c9;
      }
    </style>
  </defs>
  <g class="cls-11">
    <g id="Calque_2" data-name="Calque 2">
      <g id="Calque_1-2" data-name="Calque 1">
        <g>
          <g>
            <g>
              <rect class="cls-7" x="31.28" y="34.44" width="125.67" height="173.47" rx="7.26" ry="7.26"/>
              <path class="cls-9" d="m149.69,208.66H38.54c-4.42,0-8.01-3.59-8.01-8.01V41.71c0-4.42,3.59-8.01,8.01-8.01h111.15c4.42,0,8.01,3.59,8.01,8.01v158.95c0,4.42-3.59,8.01-8.01,8.01ZM38.54,35.2c-3.59,0-6.51,2.92-6.51,6.51v158.95c0,3.59,2.92,6.51,6.51,6.51h111.15c3.59,0,6.51-2.92,6.51-6.51V41.71c0-3.59-2.92-6.51-6.51-6.51H38.54Z"/>
            </g>
            <g>
              <path class="cls-5" d="m257.27,261.25h-121.15c-4.25,0-7.73-2.86-7.73-6.36V93.67c0-3.07,3.05-5.57,6.77-5.57h121.17c4.24,0,7.7,2.85,7.7,6.34v161.24c0,3.07-3.05,5.57-6.77,5.57Z"/>
              <path class="cls-2" d="m257.27,262h-121.15c-4.67,0-8.48-3.19-8.48-7.11V93.67c0-3.49,3.37-6.32,7.52-6.32h121.17c4.66,0,8.45,3.18,8.45,7.09v161.24c0,3.49-3.37,6.32-7.52,6.32Zm-122.11-173.15c-3.32,0-6.02,2.16-6.02,4.82v161.22c0,3.1,3.13,5.61,6.98,5.61h121.15c3.32,0,6.02-2.16,6.02-4.82V94.44c0-3.08-3.12-5.59-6.96-5.59h-121.17Z"/>
            </g>
            <rect class="cls-8" x="140.99" y="129.39" width="110.45" height="88.54"/>
            <rect class="cls-3" x="140.99" y="217.46" width="110.46" height="1.5"/>
            <g>
              <path class="cls-6" d="m239.2,120.62c0,1.08-.88,1.96-1.96,1.96s-1.96-.88-1.96-1.96c0-1.08.88-1.96,1.96-1.96s1.96.88,1.96,1.96"/>
              <path class="cls-6" d="m245.19,120.62c0,1.08-.88,1.96-1.96,1.96s-1.96-.88-1.96-1.96c0-1.08.88-1.96,1.96-1.96s1.96.88,1.96,1.96"/>
              <path class="cls-6" d="m251.17,120.62c0,1.08-.88,1.96-1.96,1.96s-1.96-.88-1.96-1.96c0-1.08.88-1.96,1.96-1.96s1.96.88,1.96,1.96"/>
            </g>
            <rect class="cls-3" x="140.99" y="128.64" width="110.46" height="1.5"/>
            <g>
              <path class="cls-6" d="m163.39,112.48c0,5.58-4.52,10.1-10.1,10.1s-10.1-4.52-10.1-10.1c0-5.58,4.52-10.1,10.1-10.1s10.1,4.52,10.1,10.1"/>
              <path class="cls-3" d="m153.3,123.33c-5.98,0-10.85-4.87-10.85-10.85s4.87-10.85,10.85-10.85,10.85,4.87,10.85,10.85-4.87,10.85-10.85,10.85Zm0-20.2c-5.15,0-9.35,4.19-9.35,9.35s4.19,9.35,9.35,9.35,9.35-4.19,9.35-9.35-4.19-9.35-9.35-9.35Z"/>
            </g>
            <rect class="cls-6" x="166.87" y="110.63" width="21.07" height="3.69"/>
            <path class="cls-4" d="m149.14,236.87c-.39-.55-1.13-1.29-2.38-1.29-1.4,0-2.63.77-2.63,2.91,0,2.03,2.07,4.22,5.01,5.7,2.93-1.47,5.01-3.67,5.01-5.7,0-2.15-1.23-2.91-2.63-2.91-1.25,0-1.99.73-2.38,1.29"/>
            <g class="cls-10">
              <rect class="cls-2" x="204.66" y="234.74" width="45.01" height="10.3" rx="2.25" ry="2.25"/>
            </g>
            <polygon class="cls-6" points="242.32 242.67 241.77 242.2 243.73 239.89 241.77 237.58 242.32 237.11 244.68 239.89 242.32 242.67"/>
            <g>
              <path class="cls-2" d="m186.43,179.43h0c-20.31-.16-38.25-4.8-53.31-13.81-12.05-7.21-22.3-17.21-30.46-29.72-13.89-21.3-16.94-42.8-16.97-43.01-.02-.14.08-.26.21-.28.14-.02.26.08.28.21.03.21,3.07,21.62,16.9,42.82,8.12,12.45,18.31,22.39,30.3,29.56,14.98,8.96,32.83,13.58,53.05,13.73.14,0,.25.11.25.25,0,.14-.11.25-.25.25Z"/>
              <polygon class="cls-2" points="183.64 182.84 185.19 179.13 183.61 175.43 192.4 179.1 183.64 182.84"/>
            </g>
            <g>
              <path class="cls-2" d="m85.94,94.85c-.53,0-1.04-.21-1.42-.58-.37-.38-.58-.89-.58-1.42s.21-1.04.58-1.42c.47-.46,1.16-.67,1.81-.54.13.02.25.06.37.11.12.05.24.11.35.19.11.07.21.15.3.24.37.38.59.89.59,1.42s-.22,1.04-.59,1.42c-.09.09-.19.17-.3.24-.11.08-.23.14-.35.19-.12.05-.24.09-.37.11-.13.03-.26.04-.39.04Z"/>
              <path class="cls-2" d="m120.35,158.66c-.85-.71-.96-1.97-.25-2.82h0c.71-.84,1.97-.95,2.82-.24h0c.84.71.96,1.97.24,2.82h0c-.39.47-.96.71-1.53.71h0c-.45,0-.91-.15-1.28-.47Zm-23.82-29.63c-.52-.97-.16-2.19.81-2.71h0c.97-.53,2.18-.17,2.71.8h0c.53.97.17,2.19-.81,2.71h0c-.3.17-.63.24-.95.24h0c-.71,0-1.4-.37-1.76-1.04Z"/>
              <path class="cls-2" d="m154.48,176.67c-.13,0-.26,0-.39-.04-.13-.03-.26-.06-.38-.11-.12-.05-.23-.12-.34-.19s-.21-.16-.31-.25c-.09-.09-.17-.19-.24-.3-.08-.11-.14-.23-.19-.35s-.09-.24-.11-.37c-.03-.13-.04-.26-.04-.39s0-.26.04-.39c.02-.13.06-.26.11-.38.05-.12.11-.23.19-.34.07-.11.15-.21.24-.31.1-.09.2-.17.31-.24.11-.08.22-.14.34-.19.12-.05.25-.09.38-.11.26-.05.52-.05.78,0,.13.02.25.06.37.11.12.05.24.11.35.19.11.07.21.15.3.24.37.38.59.89.59,1.42,0,.13-.02.26-.04.39-.03.13-.07.25-.12.37-.05.12-.11.24-.18.35-.07.11-.15.21-.25.3-.37.38-.88.59-1.41.59Z"/>
            </g>
          </g>
          <rect class="cls-1" width="294.3" height="294.3"/>
        </g>
      </g>
    </g>
  </g>
</svg>